Distance	Power
13.4128345613	1.87869976539e+12
23.9325836002	1.8459740225e+12
36.5162627054	1.76536285136e+12
52.0565217914	1.82670081692e+12
69.4959357618	1.77353302609e+12
88.8900585896	1.94005470813e+12
108.66620772	1.83508522103e+12
123.001397504	1.84764409166e+12
133.739517236	1.83670737041e+12
149.539051806	1.87184516892e+12
162.117810766	1.8433024401e+12
177.939962578	1.81042316186e+12
193.537919903	1.96209955909e+12
214.575187892	1.91445221107e+12
226.850509648	1.85093950659e+12
239.851662413	1.75680532884e+12
253.117365529	1.80774711654e+12
266.829144436	1.897030023e+12
280.912705251	1.90881741442e+12
294.20473634	1.86287792329e+12
309.403068739	1.83436063782e+12
324.48690186	1.85246819125e+12
339.90325762	1.81942037908e+12
355.392123219	1.84296830508e+12
371.480613231	1.93474335387e+12
387.516324826	1.86462254678e+12
403.877998047	1.9181237725e+12
420.158160208	1.82700427651e+12
436.094041553	1.88185942205e+12
452.941322953	1.90143112778e+12
469.910187062	2.09901508464e+12
486.340774324	2.27439047891e+12
502.775874835	2.22693501e+12
518.251747018	2.07622598916e+12
532.541924958	1.86280450257e+12
546.226124328	1.93679912622e+12
558.792818007	1.96134589535e+12
570.746989701	1.86411704933e+12
580.949083335	1.84985692633e+12
595.279871489	1.87153182689e+12
606.39301532	1.90352686825e+12
617.060379209	1.86938616167e+12
631.668905485	1.86952056881e+12
643.681243583	1.90184942636e+12
658.373351655	1.91509142669e+12
12.138163502	1.60022170845e+12
22.4553375341	1.65697617796e+12
35.3589764636	1.59808161371e+12
48.0127329405	1.59557006384e+12
63.5514407928	1.47204045544e+12
77.9358372887	1.5466488932e+12
88.3739268337	1.68502130553e+12
100.501043968	1.63275857358e+12
111.510293556	1.72413920585e+12
124.508106509	1.66552282882e+12
138.561427827	1.61054725806e+12
155.346299993	1.60948264663e+12
172.798551822	1.51132277481e+12
183.824541436	1.64646024708e+12
195.7028021	1.69379146106e+12
208.738235035	1.62341594825e+12
221.981098713	1.667769998e+12
236.116280523	1.57943516856e+12
249.611471433	1.67866065549e+12
264.060216435	1.68080502628e+12
279.244355317	1.73190642688e+12
294.639867252	1.74836912138e+12
311.392004423	1.67587101759e+12
328.379495275	1.60919044698e+12
346.088158691	1.51277932246e+12
363.913608559	1.74676960034e+12
381.9036381	2.11645885773e+12
399.601293811	2.1174997209e+12
417.293347799	2.32006090346e+12
434.810890406	2.07625452125e+12
451.97945181	2.1935172477e+12
468.873115849	1.75666972665e+12
485.457171955	1.66886159112e+12
501.355876101	1.65422958197e+12
517.587563859	1.80995412614e+12
532.741410148	1.66837404293e+12
546.710185427	1.68147148276e+12
559.6342467	1.8064392753e+12
572.190747765	1.56879776779e+12
584.207285052	1.76031646234e+12
594.553825723	1.74252421491e+12
611.616583988	1.70084931517e+12
622.411548337	1.68278241481e+12
635.779396206	1.688136585e+12
651.382269012	1.80751229485e+12
663.309636363	1.6979447403e+12
