Time	SOD	Volt	Current	Temp	Signal	Latitude	Longitude	CellID	Power	Distance
1408227269820	82	4003750	0	445	15	37.443933846704965	-122.16144895505087	4818529	0.0	9.00535228074
1408227270694	82	4003750	0	445	14	37.443933846704965	-122.16144895505087	4818529	0.0	9.00535228074
1408227272688	82	4003750	0	445	13	37.443933846704965	-122.16144895505087	4818529	0.0	9.00535228074
1408227275826	82	4003750	0	445	13	37.44402544658884	-122.16137266987852	4818529	0.0	21.2087832167
1408227276682	82	4003750	0	445	12	37.44402544658884	-122.16137266987852	4818529	0.0	21.2087832167
1408227278822	82	4003750	0	445	12	37.444102988440754	-122.16130921616522	4818529	0.0	31.484646879
1408227281824	82	4003750	0	445	12	37.44421272790033	-122.16119152053363	4818529	0.0	47.5100392834
1408227283864	82	4003750	0	445	12	37.44429107751385	-122.16111203780761	4818529	0.0	58.6941922906
1408227290984	82	4003750	0	445	13	37.44429107751385	-122.16111203780761	4818529	0.0	58.6941922906
1408227293831	82	4003750	0	445	13	37.444390371726186	-122.1610230512593	4818529	0.0	72.2386986421
1408227296840	82	4003750	0	445	13	37.444481576414965	-122.16094096158412	4818529	0.0	84.6979060172
