Time	SOD	Volt	Current	Temp	Signal	Latitude	Longitude	CellID	Power	Distance
1408225636824	91	4100625	0	377	19	37.44864169057491	-122.16302653871547	4818529	0.0	10.4069493427
1408225638814	91	4100625	0	377	18	37.44864169057491	-122.16302653871547	4818529	0.0	10.4069493427
1408225638824	91	4100625	0	377	18	37.448536951291544	-122.16314021942473	4818529	0.0	25.7795564005
1408225640809	91	4100625	0	377	18	37.44842246675627	-122.16325344319317	4818529	0.0	41.9604527353
1408225642816	91	4100625	0	377	18	37.44829403660837	-122.16339081431526	4818529	0.0	60.6935934106
1408225644809	91	4100625	0	377	18	37.448165803767466	-122.16353429335872	4818529	0.0	79.7655275821
1408225646810	91	4100625	0	377	18	37.44803143821011	-122.16367269504795	4818529	0.0	99.0624263971
1408225648815	91	4100625	0	377	18	37.447896585488586	-122.16380557035957	4818529	0.0	118.095238389
1408225649825	91	4100625	0	377	16	37.447896585488586	-122.16380557035957	4818529	0.0	118.095238389
1408225650812	91	4100625	0	377	16	37.44777031396787	-122.16393091862321	4818529	0.0	135.96776195
1408225651813	91	4100625	0	377	15	37.44777031396787	-122.16393091862321	4818529	0.0	135.96776195
1408225652808	91	4100625	0	377	15	37.44766893892761	-122.16403097098333	4818529	0.0	150.28456182
1408225653813	91	4100625	0	377	16	37.44766893892761	-122.16403097098333	4818529	0.0	150.28456182
1408225655820	91	4100625	0	377	17	37.44766893892761	-122.16403097098333	4818529	0.0	150.28456182
1408225656825	91	4100625	0	377	17	37.447590146339984	-122.16410621365631	4818529	0.0	161.275540055
1408225658813	91	4100625	0	377	18	37.447590146339984	-122.16410621365631	4818529	0.0	161.275540055
1408225659808	91	4100625	0	377	18	37.44746626923447	-122.16421321444423	4818529	0.0	177.968982409
