Time	SOD	Volt	Current	Temp	Signal	Latitude	Longitude	CellID
1403820199185	88	4111413	472100	414	15	37.427526	-122.14916762	4800409
1403820199238	88	4097004	536300	414	15	37.427526	-122.14916762	4800409
1403820199346	88	4099062	495500	415	15	37.427526	-122.14916762	4800409
1403820199465	88	4107588	708800	415	15	37.427526	-122.14916762	4800409
1403820199592	88	4114353	358000	414	15	37.427526	-122.14916762	4800409
1403820199710	88	4093767	542000	415	15	37.427526	-122.14916762	4800409
1403820199820	88	4112295	369500	415	15	37.427526	-122.14916762	4800409
1403820199933	88	4123764	332200	415	15	37.427526	-122.14916762	4800409
1403820200061	88	4105530	354600	415	15	37.427526	-122.14916762	4800409
1403820200170	88	4103472	430800	415	15	37.427526	-122.14916762	4800409
1403820200278	88	4113471	331700	415	15	37.427526	-122.14916762	4800409
1403820200398	88	4107294	415300	415	15	37.427526	-122.14916762	4800409
1403820200511	88	4117881	361500	415	15	37.427526	-122.14916762	4800409
1403820200631	88	4124352	358000	414	15	37.427526	-122.14916762	4800409
1403820200763	88	4113471	366700	415	15	37.427526	-122.14916762	4800409
1403820200872	88	4118175	344900	415	15	37.427526	-122.14916762	4800409
1403820200986	88	4124646	316200	414	15	37.427526	-122.14916762	4800409
1403820201123	88	4113471	401000	415	15	37.427526	-122.14916762	4800409
1403820201178	88	4113471	401000	415	15	37.42742539	-122.14902928	4800409
1403820201231	88	4110825	430200	415	15	37.42742539	-122.14902928	4800409
1403820201349	88	4119645	346000	414	15	37.42742539	-122.14902928	4800409
1403820201478	88	4115235	373500	415	15	37.42742539	-122.14902928	4800409
1403820201584	88	4116705	403800	415	15	37.42742539	-122.14902928	4800409
1403820201702	88	4122588	303600	414	15	37.42742539	-122.14902928	4800409
1403820201846	88	4115235	319700	415	15	37.42742539	-122.14902928	4800409
1403820201961	88	4120530	355100	415	15	37.42742539	-122.14902928	4800409
1403820202081	88	4122588	308800	415	15	37.42742539	-122.14902928	4800409
1403820202179	88	4122588	308800	415	15	37.42736013	-122.14894965	4800409
1403820202212	88	4107588	499500	415	15	37.42736013	-122.14894965	4800409
1403820202333	88	4099356	484100	414	15	37.42736013	-122.14894965	4800409
1403820202443	88	4081416	601000	415	15	37.42736013	-122.14894965	4800409
1403820202552	88	4099944	470900	415	15	37.42736013	-122.14894965	4800409
1403820202661	88	4102002	466400	415	15	37.42736013	-122.14894965	4800409
1403820202769	88	4113177	383800	415	15	37.42736013	-122.14894965	4800409
1403820202899	88	4114647	399300	415	15	37.42736013	-122.14894965	4800409
1403820203006	88	4105824	349400	415	15	37.42736013	-122.14894965	4800409
1403820203120	88	4121118	316800	414	15	37.42736013	-122.14894965	4800409
1403820203219	88	4121118	316800	414	15	37.42729222	-122.14886287	4800409
1403820203271	88	4108473	438800	415	15	37.42729222	-122.14886287	4800409
1403820203377	88	4107294	453200	415	15	37.42729222	-122.14886287	4800409
1403820203496	88	4071126	498500	415	15	37.42729222	-122.14886287	4800409
1403820203611	88	4110825	558000	415	15	37.42729222	-122.14886287	4800409
1403820203724	88	4094943	403300	415	15	37.42729222	-122.14886287	4800409
1403820203892	88	4117293	358600	414	15	37.42729222	-122.14886287	4800409
1403820204013	88	4113471	406200	415	15	37.42729222	-122.14886287	4800409
1403820204123	88	4120236	370000	414	15	37.42729222	-122.14886287	4800409
1403820204180	88	4120236	370000	414	15	37.42721936	-122.14876403	4800409
1403820204239	88	4122882	322500	415	15	37.42721936	-122.14876403	4800409
1403820204351	88	4113177	489800	415	15	37.42721936	-122.14876403	4800409
1403820204460	88	4094355	392400	415	15	37.42721936	-122.14876403	4800409
1403820204570	88	4110531	376400	414	15	37.42721936	-122.14876403	4800409
1403820204692	88	4110531	351800	414	15	37.42721936	-122.14876403	4800409
1403820204801	88	4120824	307000	414	15	37.42721936	-122.14876403	4800409
1403820204915	88	4128174	294400	413	15	37.42721936	-122.14876403	4800409
1403820205044	88	4107000	297300	414	15	37.42721936	-122.14876403	4800409
1403820205158	88	4109355	308800	414	15	37.42721936	-122.14876403	4800409
1403820205181	88	4109355	308800	414	15	37.42713914	-122.14865742	4800409
1403820205275	88	4101120	468600	414	15	37.42713914	-122.14865742	4800409
1403820205385	88	4104648	435900	414	15	37.42713914	-122.14865742	4800409
1403820205497	88	4123176	296700	414	15	37.42713914	-122.14865742	4800409
1403820205619	88	4123470	296700	414	15	37.42713914	-122.14865742	4800409
1403820205746	88	4109943	274300	414	15	37.42713914	-122.14865742	4800409
1403820205857	88	4111119	307600	414	15	37.42713914	-122.14865742	4800409
1403820205967	88	4123764	328800	414	15	37.42713914	-122.14865742	4800409
1403820206112	88	4101708	493800	414	15	37.42713914	-122.14865742	4800409
1403820206179	88	4101708	493800	414	15	37.42704905	-122.14854891	4800409
1403820206221	88	4088475	570100	415	15	37.42704905	-122.14854891	4800409
1403820206342	88	4110825	380400	414	15	37.42704905	-122.14854891	4800409
1403820206449	88	4113765	378100	414	15	37.42704905	-122.14854891	4800409
1403820206557	88	4111413	279500	414	15	37.42704905	-122.14854891	4800409
1403820206672	88	4129938	332900	414	15	37.42704905	-122.14854891	4800409
1403820206820	88	4108473	434300	415	15	37.42704905	-122.14854891	4800409
1403820206930	88	4115529	289200	414	15	37.42704905	-122.14854891	4800409
1403820207045	88	4113471	288700	414	15	37.42704905	-122.14854891	4800409
1403820207167	88	4114059	326500	414	15	37.42704905	-122.14854891	4800409
1403820207190	88	4114059	326500	414	15	37.42694137	-122.1484423	4800409
1403820207277	88	4114353	346600	414	15	37.42694137	-122.1484423	4800409
1403820207398	88	4117293	254300	414	15	37.42694137	-122.1484423	4800409
1403820207516	88	4124940	258300	414	15	37.42694137	-122.1484423	4800409
1403820207633	88	4128468	275500	414	15	37.42694137	-122.1484423	4800409
1403820207750	88	4131114	240000	414	15	37.42694137	-122.1484423	4800409
1403820207887	88	4118175	221100	415	15	37.42694137	-122.1484423	4800409
1403820207998	88	4114941	303600	414	15	37.42694137	-122.1484423	4800409
1403820208123	88	4128762	327100	414	15	37.42694137	-122.1484423	4800409
1403820208180	88	4128762	327100	414	15	37.42683112	-122.14832741	4800409
1403820208249	88	4102002	347800	414	15	37.42683112	-122.14832741	4800409
1403820208359	88	4099062	458900	414	15	37.42683112	-122.14832741	4800409
1403820208490	88	4132587	281200	413	15	37.42683112	-122.14832741	4800409
1403820208607	88	4119645	236500	414	15	37.42683112	-122.14832741	4800409
1403820208717	88	4116705	293900	414	15	37.42683112	-122.14832741	4800409
1403820208847	88	4132587	246900	414	15	37.42683112	-122.14832741	4800409
1403820208982	88	4125528	295600	414	15	37.42683112	-122.14832741	4800409
1403820209096	88	4130232	267000	413	15	37.42683112	-122.14832741	4800409
1403820209184	88	4130232	267000	413	15	37.42672603	-122.14820798	4800409
1403820209228	88	4125234	329400	413	15	37.42672603	-122.14820798	4800409
1403820209346	88	4112001	218800	414	15	37.42672603	-122.14820798	4800409
1403820209458	88	4127292	289200	414	15	37.42672603	-122.14820798	4800409
1403820209580	88	4118175	265200	414	15	37.42672603	-122.14820798	4800409
1403820209713	88	4126116	228000	414	15	37.42672603	-122.14820798	4800409
1403820209826	88	4118763	209100	414	15	37.42672603	-122.14820798	4800409
1403820209942	88	4133469	221100	413	15	37.42672603	-122.14820798	4800409
1403820210087	88	4117293	264100	414	15	37.42672603	-122.14820798	4800409
1403820210180	88	4117293	264100	414	15	37.42661888	-122.14809245	4800409
1403820210196	88	4108767	456600	413	15	37.42661888	-122.14809245	4800409
1403820210318	88	4116999	324800	414	15	37.42661888	-122.14809245	4800409
1403820210428	88	4114647	266300	414	15	37.42661888	-122.14809245	4800409
1403820210542	88	4131408	265200	413	15	37.42661888	-122.14809245	4800409
1403820210659	88	4126410	274300	414	15	37.42661888	-122.14809245	4800409
1403820210796	88	4117587	262900	414	15	37.42661888	-122.14809245	4800409
1403820210910	88	4116705	318000	414	15	37.42661888	-122.14809245	4800409
1403820211027	88	4129644	304800	414	15	37.42661888	-122.14809245	4800409
1403820211162	88	4125822	256100	414	15	37.42661888	-122.14809245	4800409
1403820211192	88	4125822	256100	414	15	37.42652106	-122.14797627	4800409
1403820211272	88	4122882	309300	415	15	37.42652106	-122.14797627	4800409
1403820211410	88	4132290	285200	413	15	37.42652106	-122.14797627	4800409
1403820211523	88	4124940	307000	414	15	37.42652106	-122.14797627	4800409
1403820211634	88	4125234	275000	414	15	37.42652106	-122.14797627	4800409
1403820211747	88	4133763	257100	413	15	37.42652106	-122.14797627	4800409
1403820211868	88	4118763	215900	414	15	37.42652106	-122.14797627	4800409
1403820211979	88	4119351	262900	413	15	37.42652106	-122.14797627	4800409
1403820212104	88	4131996	224000	414	15	37.42652106	-122.14797627	4800409
1403820212196	88	4131996	224000	414	15	37.42642239	-122.14787462	4800409
1403820212229	88	4121412	489300	414	15	37.42642239	-122.14787462	4800409
1403820212343	88	4119351	258900	414	15	37.42642239	-122.14787462	4800409
1403820212469	88	4132881	243400	413	15	37.42642239	-122.14787462	4800409
1403820212588	88	4115823	251400	414	15	37.42642239	-122.14787462	4800409
1403820212698	88	4120236	224500	414	15	37.42642239	-122.14787462	4800409
1403820212823	88	4137585	251400	413	15	37.42642239	-122.14787462	4800409
1403820212953	88	4126998	270300	415	15	37.42642239	-122.14787462	4800409
1403820213066	88	4115529	232000	414	15	37.42642239	-122.14787462	4800409
1403820213186	88	4129350	276100	413	15	37.42642239	-122.14787462	4800409
1403820213199	88	4129350	276100	413	15	37.42632694	-122.14776664	4800409
1403820213309	88	4124646	446800	413	15	37.42632694	-122.14776664	4800409
1403820213422	88	4117587	225700	414	15	37.42632694	-122.14776664	4800409
1403820213541	88	4130820	296100	413	15	37.42632694	-122.14776664	4800409
1403820213671	88	4124352	321300	414	15	37.42632694	-122.14776664	4800409
1403820213782	88	4125234	293900	414	15	37.42632694	-122.14776664	4800409
1403820213896	88	4088475	511600	414	15	37.42632694	-122.14776664	4800409
1403820214028	88	4115823	352900	415	15	37.42632694	-122.14776664	4800409
1403820214141	88	4106412	303100	415	15	37.42632694	-122.14776664	4800409
1403820214182	88	4106412	303100	415	15	37.42623409	-122.14765725	4800409
1403820214263	88	4089063	433600	414	15	37.42623409	-122.14765725	4800409
1403820214393	88	4107885	388900	415	15	37.42623409	-122.14765725	4800409
1403820214503	88	4111119	313300	415	15	37.42623409	-122.14765725	4800409
1403820214620	88	4113765	373500	414	15	37.42623409	-122.14765725	4800409
1403820214768	88	4118763	348300	414	15	37.42623409	-122.14765725	4800409
1403820214890	88	4119939	355800	414	15	37.42623409	-122.14765725	4800409
1403820215013	88	4123176	318000	414	15	37.42623409	-122.14765725	4800409
1403820215142	88	4116411	368900	415	15	37.42623409	-122.14765725	4800409
1403820215196	88	4116411	368900	415	15	37.42614471	-122.14755406	4800409
1403820215250	88	4098180	501300	414	15	37.42614471	-122.14755406	4800409
1403820215380	88	4121412	337900	414	15	37.42614471	-122.14755406	4800409
1403820215498	88	4110237	292700	414	15	37.42614471	-122.14755406	4800409
1403820215610	88	4108473	323000	415	15	37.42614471	-122.14755406	4800409
1403820215730	88	4123470	333400	414	15	37.42614471	-122.14755406	4800409
1403820215862	88	4094061	499000	414	15	37.42614471	-122.14755406	4800409
1403820215976	88	4105824	437100	415	15	37.42614471	-122.14755406	4800409
1403820216091	88	4115823	499500	414	15	37.42614471	-122.14755406	4800409
1403820216186	88	4115823	499500	414	15	37.42605237	-122.14745007	4800409
1403820216221	88	4105824	484100	415	15	37.42605237	-122.14745007	4800409
1403820216329	88	4119057	328800	415	15	37.42605237	-122.14745007	4800409
1403820216460	88	4124058	280700	414	15	37.42605237	-122.14745007	4800409
1403820216577	88	4118763	326500	415	15	37.42605237	-122.14745007	4800409
1403820216687	88	4106412	363200	415	15	37.42605237	-122.14745007	4800409
1403820216807	88	4119351	340300	414	15	37.42605237	-122.14745007	4800409
1403820216944	88	4118763	312200	415	15	37.42605237	-122.14745007	4800409
1403820217056	88	4110825	320200	415	15	37.42605237	-122.14745007	4800409
1403820217194	88	4123176	332200	414	15	37.42605237	-122.14745007	4800409
1403820217230	88	4123176	332200	414	15	37.42596638	-122.14734935	4800409
1403820217316	88	4110237	339100	415	15	37.42596638	-122.14734935	4800409
1403820217428	88	4116705	387800	414	15	37.42596638	-122.14734935	4800409
1403820217560	88	4126704	293900	414	15	37.42596638	-122.14734935	4800409
1403820217677	88	4114059	327100	415	15	37.42596638	-122.14734935	4800409
1403820217787	88	4111119	356300	415	15	37.42596638	-122.14734935	4800409
1403820217914	88	4123470	279000	414	15	37.42596638	-122.14734935	4800409
1403820218046	88	4118763	327700	414	15	37.42596638	-122.14734935	4800409
1403820218183	88	4123176	330500	414	15	37.42596638	-122.14734935	4800409
1403820218197	88	4123176	330500	414	15	37.42587716	-122.14725373	4800409
1403820218308	88	4104060	406200	414	15	37.42587716	-122.14725373	4800409
1403820218428	88	4122588	284100	414	15	37.42587716	-122.14725373	4800409
1403820218550	88	4125234	319700	414	15	37.42587716	-122.14725373	4800409
1403820218672	88	4122294	295000	414	15	37.42587716	-122.14725373	4800409
1403820218806	88	4109355	320200	415	15	37.42587716	-122.14725373	4800409
1403820218925	88	4071126	525400	415	15	37.42587716	-122.14725373	4800409
1403820219045	88	4119057	493800	414	15	37.42587716	-122.14725373	4800409
1403820219175	88	4091415	736200	414	15	37.42587716	-122.14725373	4800409
1403820219212	88	4091415	736200	414	15	37.4257951	-122.1471603	4800409
1403820219284	88	4100826	487500	415	15	37.4257951	-122.1471603	4800409
1403820219400	88	4111707	466400	415	15	37.4257951	-122.1471603	4800409
1403820219519	88	4118763	363200	415	15	37.4257951	-122.1471603	4800409
1403820219632	88	4117293	379200	415	15	37.4257951	-122.1471603	4800409
1403820219740	88	4121118	366000	414	15	37.4257951	-122.1471603	4800409
1403820219857	88	4131408	291000	413	15	37.4257951	-122.1471603	4800409
1403820219977	88	4130820	308100	414	15	37.4257951	-122.1471603	4800409
1403820220097	88	4127586	296700	414	15	37.4257951	-122.1471603	4800409
1403820220190	88	4127586	296700	414	15	37.42571427	-122.14707238	4800409
1403820220231	88	4123176	332200	414	15	37.42571427	-122.14707238	4800409
1403820220343	88	4127292	224500	414	15	37.42571427	-122.14707238	4800409
1403820220459	88	4124940	268100	415	15	37.42571427	-122.14707238	4800409
1403820220587	88	4116117	292100	414	15	37.42571427	-122.14707238	4800409
1403820220698	88	4119057	284100	414	15	37.42571427	-122.14707238	4800409
1403820220815	88	4131702	287000	414	15	37.42571427	-122.14707238	4800409
1403820220960	88	4120530	319000	415	15	37.42571427	-122.14707238	4800409
1403820221074	88	4131408	287000	414	15	37.42571427	-122.14707238	4800409
1403820221196	88	4130526	276100	413	15	37.42571427	-122.14707238	4800409
1403820221209	88	4130526	276100	413	15	37.42563809	-122.14698742	4800409
1403820221319	88	4118175	324200	414	15	37.42563809	-122.14698742	4800409
1403820221430	88	4120530	308100	414	15	37.42563809	-122.14698742	4800409
1403820221544	88	4137291	239400	413	15	37.42563809	-122.14698742	4800409
1403820221670	88	4127292	276700	414	15	37.42563809	-122.14698742	4800409
1403820221783	88	4110825	314000	414	15	37.42563809	-122.14698742	4800409
1403820221895	88	4133469	268600	413	15	37.42563809	-122.14698742	4800409
1403820222030	88	4123176	316200	414	15	37.42563809	-122.14698742	4800409
1403820222144	88	4129056	269800	415	15	37.42563809	-122.14698742	4800409
1403820222192	88	4129056	269800	415	15	37.42556611	-122.14690399	4800409
1403820222278	88	4119057	293300	414	15	37.42556611	-122.14690399	4800409
1403820222387	88	4126998	268100	413	15	37.42556611	-122.14690399	4800409
1403820222506	88	4129350	260100	413	15	37.42556611	-122.14690399	4800409
1403820222623	88	4133469	260600	413	15	37.42556611	-122.14690399	4800409
1403820222751	88	4116411	247400	414	15	37.42556611	-122.14690399	4800409
1403820222861	88	4127292	309900	414	15	37.42556611	-122.14690399	4800409
1403820222975	88	4131996	268600	413	15	37.42556611	-122.14690399	4800409
1403820223117	88	4117293	390700	414	15	37.42556611	-122.14690399	4800409
1403820223189	88	4117293	390700	414	15	37.42549969	-122.14681401	4800409
1403820223229	88	4111707	409600	414	15	37.42549969	-122.14681401	4800409
1403820223349	88	4131408	238900	414	15	37.42549969	-122.14681401	4800409
1403820223466	88	4116411	288700	415	15	37.42549969	-122.14681401	4800409
1403820223579	88	4115529	275500	414	15	37.42549969	-122.14681401	4800409
1403820223694	88	4137879	234200	413	15	37.42549969	-122.14681401	4800409
1403820223830	88	4117587	312200	415	15	37.42549969	-122.14681401	4800409
1403820223939	88	4119057	251400	414	15	37.42549969	-122.14681401	4800409
1403820224055	88	4133763	254300	414	15	37.42549969	-122.14681401	4800409
1403820224187	88	4114941	291000	414	15	37.42549969	-122.14681401	4800409
1403820224193	88	4114941	291000	414	15	37.42544131	-122.14671334	4800409
1403820224342	88	4126998	291000	413	15	37.42544131	-122.14671334	4800409
1403820224471	88	4127292	264600	413	15	37.42544131	-122.14671334	4800409
1403820224589	88	4115235	254900	414	15	37.42544131	-122.14671334	4800409
1403820224697	88	4127880	220000	414	15	37.42544131	-122.14671334	4800409
1403820224812	88	4134939	245700	413	15	37.42544131	-122.14671334	4800409
1403820224952	88	4117293	366700	414	15	37.42544131	-122.14671334	4800409
1403820225064	88	4117293	261100	414	15	37.42544131	-122.14671334	4800409
1403820225184	88	4127586	307000	413	15	37.42544131	-122.14671334	4800409
1403820225198	88	4127586	307000	413	15	37.42537824	-122.14660965	4800409
1403820225307	88	4114647	505900	414	15	37.42537824	-122.14660965	4800409
1403820225416	88	4114941	366000	414	15	37.42537824	-122.14660965	4800409
1403820225525	88	4117293	317300	414	15	37.42537824	-122.14660965	4800409
1403820225642	88	4125528	291000	414	15	37.42537824	-122.14660965	4800409
1403820225756	88	4114647	282400	414	15	37.42537824	-122.14660965	4800409
1403820225871	88	4133763	264600	413	15	37.42537824	-122.14660965	4800409
1403820226001	88	4122588	314000	415	15	37.42537824	-122.14660965	4800409
1403820226111	88	4126704	301900	414	15	37.42537824	-122.14660965	4800409
1403820226194	88	4126704	301900	414	15	37.42531571	-122.14650374	4800409
1403820226239	88	4131702	285900	413	15	37.42531571	-122.14650374	4800409
1403820226351	88	4126998	307600	414	15	37.42531571	-122.14650374	4800409
1403820226470	88	4124646	310500	414	15	37.42531571	-122.14650374	4800409
1403820226584	88	4130820	289200	413	15	37.42531571	-122.14650374	4800409
1403820226712	88	4126410	300100	414	15	37.42531571	-122.14650374	4800409
1403820226828	88	4126704	274300	414	15	37.42531571	-122.14650374	4800409
1403820226948	88	4118763	232500	414	15	37.42531571	-122.14650374	4800409
1403820227070	88	4118469	229100	414	15	37.42531571	-122.14650374	4800409
1403820227200	88	4131702	281800	414	15	37.42531571	-122.14650374	4800409
1403820227212	88	4131702	281800	414	15	37.42525248	-122.14639119	4800409
1403820227330	88	4116705	309300	414	15	37.42525248	-122.14639119	4800409
1403820227440	88	4126998	220500	414	15	37.42525248	-122.14639119	4800409
1403820227560	88	4131408	238900	413	15	37.42525248	-122.14639119	4800409
1403820227680	88	4132290	247400	414	15	37.42525248	-122.14639119	4800409
1403820227864	88	4122294	267500	414	15	37.42525248	-122.14639119	4800409
1403820227979	88	4129056	339700	414	15	37.42525248	-122.14639119	4800409
1403820228102	88	4131702	256600	413	15	37.42525248	-122.14639119	4800409
1403820228181	88	4131702	256600	413	15	37.42518798	-122.14627673	4800409
1403820228232	88	4125528	305900	414	15	37.42518798	-122.14627673	4800409
1403820228343	88	4126410	260600	414	15	37.42518798	-122.14627673	4800409
1403820228480	88	4129644	220500	415	15	37.42518798	-122.14627673	4800409
1403820228589	88	4118763	359800	415	15	37.42518798	-122.14627673	4800409
1403820228696	88	4120236	348300	415	15	37.42518798	-122.14627673	4800409
1403820228806	88	4128468	292100	414	15	37.42518798	-122.14627673	4800409
1403820228937	88	4122000	336200	415	15	37.42518798	-122.14627673	4800409
1403820229050	88	4113177	286400	415	15	37.42518798	-122.14627673	4800409
1403820229191	88	4124352	320200	414	15	37.42518798	-122.14627673	4800409
1403820229211	88	4124352	320200	414	15	37.42511953	-122.14615708	4800409
1403820229318	88	4119057	343700	415	15	37.42511953	-122.14615708	4800409
1403820229436	88	4126998	361500	415	15	37.42511953	-122.14615708	4800409
1403820229546	88	4115823	378100	415	15	37.42511953	-122.14615708	4800409
1403820229675	88	4098768	491000	415	15	37.42511953	-122.14615708	4800409
1403820229782	88	4097592	493800	415	15	37.42511953	-122.14615708	4800409
1403820229889	88	4113177	394800	415	15	37.42511953	-122.14615708	4800409
1403820230008	88	4114647	484600	415	15	37.42511953	-122.14615708	4800409
1403820230129	88	4116411	407900	415	15	37.42511953	-122.14615708	4800409
1403820230187	88	4116411	407900	415	15	37.42505623	-122.14602882	4800409
1403820230255	88	4117293	365500	415	15	37.42505623	-122.14602882	4800409
1403820230368	88	4104060	370700	415	15	37.42505623	-122.14602882	4800409
1403820230484	88	4117293	316200	415	15	37.42505623	-122.14602882	4800409
1403820230599	88	4120824	351100	415	15	37.42505623	-122.14602882	4800409
1403820230726	88	4118175	331100	415	15	37.42505623	-122.14602882	4800409
1403820230837	88	4113177	303100	415	15	37.42505623	-122.14602882	4800409
1403820230959	88	4125234	295000	414	15	37.42505623	-122.14602882	4800409
1403820231092	88	4108767	318500	415	15	37.42505623	-122.14602882	4800409
1403820231198	88	4108767	318500	415	15	37.42498364	-122.14589978	4800409
1403820231201	88	4100826	458900	415	15	37.42498364	-122.14589978	4800409
1403820231329	88	4121412	346600	415	15	37.42498364	-122.14589978	4800409
1403820231460	88	4121118	339700	415	15	37.42498364	-122.14589978	4800409
1403820231574	88	4124352	295000	415	15	37.42498364	-122.14589978	4800409
1403820231693	88	4125234	291000	415	15	37.42498364	-122.14589978	4800409
1403820231833	88	4118763	354600	415	15	37.42498364	-122.14589978	4800409
1403820231945	88	4120236	333400	415	15	37.42498364	-122.14589978	4800409
1403820232060	88	4122882	316200	415	15	37.42498364	-122.14589978	4800409
1403820232180	88	4122882	316200	415	15	37.4249233	-122.14576307	4800409
1403820232188	88	4103472	399300	415	15	37.4249233	-122.14576307	4800409
1403820232298	88	4117587	304100	415	15	37.4249233	-122.14576307	4800409
1403820232429	88	4125822	314000	415	15	37.4249233	-122.14576307	4800409
1403820232553	88	4119351	322500	415	15	37.4249233	-122.14576307	4800409
1403820232663	88	4117881	330500	415	15	37.4249233	-122.14576307	4800409
1403820232781	88	4126116	287600	415	15	37.4249233	-122.14576307	4800409
1403820232910	88	4114941	305300	415	15	37.4249233	-122.14576307	4800409
1403820233021	88	4111707	331100	415	15	37.4249233	-122.14576307	4800409
1403820233159	88	4122294	340900	415	15	37.4249233	-122.14576307	4800409
1403820233227	88	4122294	340900	415	15	37.42485839	-122.1456337	4800409
1403820233304	88	4102590	474400	415	15	37.42485839	-122.1456337	4800409
1403820233412	88	4113177	393000	415	15	37.42485839	-122.1456337	4800409
1403820233531	88	4122588	327700	415	15	37.42485839	-122.1456337	4800409
1403820233659	88	4114647	375200	415	15	37.42485839	-122.1456337	4800409
1403820233765	88	4118175	367200	415	15	37.42485839	-122.1456337	4800409
1403820233876	88	4126116	323000	415	15	37.42485839	-122.1456337	4800409
1403820234011	88	4112883	297300	415	15	37.42485839	-122.1456337	4800409
1403820234118	88	4100532	500700	415	15	37.42485839	-122.1456337	4800409
1403820234190	88	4100532	500700	415	15	37.4247929	-122.14550237	4800409
1403820234237	88	4101414	487000	415	15	37.4247929	-122.14550237	4800409
1403820234350	88	4083477	597500	415	15	37.4247929	-122.14550237	4800409
1403820234457	88	4108473	418200	416	15	37.4247929	-122.14550237	4800409
1403820234564	88	4065243	551700	416	15	37.4247929	-122.14550237	4800409
1403820234677	88	4065243	557400	415	15	37.4247929	-122.14550237	4800409
1403820234801	88	4086417	381600	414	15	37.4247929	-122.14550237	4800409
1403820234921	88	4106706	382100	416	15	37.4247929	-122.14550237	4800409
1403820235038	88	4104060	392400	414	15	37.4247929	-122.14550237	4800409
1403820235149	88	4107294	448000	414	15	37.4247929	-122.14550237	4800409
1403820235212	88	4107294	448000	414	15	37.42472261	-122.14536925	4800409
1403820235277	88	4071126	700100	415	15	37.42472261	-122.14536925	4800409
1403820235384	88	4102590	447500	415	15	37.42472261	-122.14536925	4800409
1403820235490	88	4104060	446300	415	15	37.42472261	-122.14536925	4800409
1403820235602	88	4132881	242900	414	15	37.42472261	-122.14536925	4800409
1403820235730	88	4127292	291600	414	15	37.42472261	-122.14536925	4800409
1403820235839	88	4127292	289200	414	15	37.42472261	-122.14536925	4800409
1403820235956	88	4138761	206200	415	15	37.42472261	-122.14536925	4800409
1403820236102	88	4130526	252600	414	15	37.42472261	-122.14536925	4800409
1403820236190	88	4130526	252600	414	15	37.42467969	-122.14526602	4800409
1403820236219	88	4110531	309300	414	15	37.42467969	-122.14526602	4800409
1403820236338	88	4127586	221100	414	15	37.42467969	-122.14526602	4800409
1403820236448	88	4130526	246300	414	15	37.42467969	-122.14526602	4800409
1403820236565	88	4136997	220500	414	15	37.42467969	-122.14526602	4800409
1403820236695	88	4134939	274300	414	15	37.42467969	-122.14526602	4800409
1403820236819	88	4116999	262900	414	15	37.42467969	-122.14526602	4800409
1403820236932	88	4120824	286400	414	15	37.42467969	-122.14526602	4800409
1403820237051	88	4131408	237200	414	15	37.42467969	-122.14526602	4800409
1403820237181	88	4118175	287000	415	15	37.42467969	-122.14526602	4800409
1403820237211	88	4118175	287000	415	15	37.42460063	-122.1451427	4800409
1403820237294	88	4127586	245700	415	15	37.42460063	-122.1451427	4800409
1403820237420	88	4133175	284100	414	15	37.42460063	-122.1451427	4800409
1403820237536	88	4119057	300100	416	15	37.42460063	-122.1451427	4800409
1403820237650	88	4121412	217600	414	15	37.42460063	-122.1451427	4800409
1403820237770	88	4132290	213100	414	15	37.42460063	-122.1451427	4800409
1403820237917	88	4132881	303600	414	15	37.42460063	-122.1451427	4800409
1403820238039	88	4134057	225100	414	15	37.42460063	-122.1451427	4800409
1403820238174	88	4133175	264600	414	15	37.42460063	-122.1451427	4800409
1403820238242	88	4133175	264600	414	15	37.42454783	-122.14503935	4800409
1403820238296	88	4119939	301300	415	15	37.42454783	-122.14503935	4800409
1403820238408	88	4119351	248600	414	15	37.42454783	-122.14503935	4800409
1403820238534	88	4133469	207900	414	15	37.42454783	-122.14503935	4800409
1403820238647	88	4114059	320800	415	15	37.42454783	-122.14503935	4800409
1403820238757	88	4119351	258300	415	15	37.42454783	-122.14503935	4800409
1403820238875	88	4134057	254300	414	15	37.42454783	-122.14503935	4800409
1403820239005	88	4113177	246900	415	15	37.42454783	-122.14503935	4800409
1403820239116	88	4122000	268100	415	15	37.42454783	-122.14503935	4800409
1403820239178	88	4122000	268100	415	15	37.42448197	-122.14492128	4800409
1403820239237	88	4112589	289200	414	15	37.42448197	-122.14492128	4800409
1403820239344	88	4109943	445700	414	15	37.42448197	-122.14492128	4800409
1403820239459	88	4123764	245200	415	15	37.42448197	-122.14492128	4800409
1403820239574	88	4132290	216500	415	15	37.42448197	-122.14492128	4800409
1403820239702	88	4130232	236000	415	15	37.42448197	-122.14492128	4800409
1403820239813	88	4125234	234800	415	15	37.42448197	-122.14492128	4800409
1403820239925	88	4133175	226800	414	15	37.42448197	-122.14492128	4800409
1403820240068	88	4104942	454900	414	15	37.42448197	-122.14492128	4800409
1403820240186	88	4115529	270300	415	15	37.42448197	-122.14492128	4800409
1403820240195	88	4115529	270300	415	15	37.42442194	-122.14481223	4800409
1403820240309	88	4125528	329400	414	15	37.42442194	-122.14481223	4800409
1403820240431	88	4134939	214300	414	15	37.42442194	-122.14481223	4800409
1403820240568	88	4131114	288100	414	15	37.42442194	-122.14481223	4800409
1403820240686	88	4131114	264600	414	15	37.42442194	-122.14481223	4800409
1403820240821	88	4126998	236000	415	15	37.42442194	-122.14481223	4800409
1403820240932	88	4119351	249700	415	15	37.42442194	-122.14481223	4800409
1403820241048	88	4129056	257800	414	15	37.42442194	-122.14481223	4800409
1403820241186	88	4112883	330500	414	15	37.42442194	-122.14481223	4800409
1403820241198	88	4112883	330500	414	15	37.42436517	-122.1447081	4800409
1403820241297	88	4114647	310500	415	15	37.42436517	-122.1447081	4800409
1403820241429	88	4131408	294400	414	15	37.42436517	-122.1447081	4800409
1403820241546	88	4117587	245200	414	15	37.42436517	-122.1447081	4800409
1403820241658	88	4118469	308100	414	15	37.42436517	-122.1447081	4800409
1403820241769	88	4133469	249200	414	15	37.42436517	-122.1447081	4800409
1403820241903	88	4124352	266300	415	15	37.42436517	-122.1447081	4800409
1403820242015	88	4110531	326000	415	15	37.42436517	-122.1447081	4800409
1403820242127	88	4126998	250900	414	15	37.42436517	-122.1447081	4800409
1403820242203	88	4126998	250900	414	15	37.42431339	-122.14461108	4800409
1403820242263	88	4124058	293300	415	15	37.42431339	-122.14461108	4800409
1403820242375	88	4116705	225700	415	15	37.42431339	-122.14461108	4800409
1403820242506	88	4130232	245700	414	15	37.42431339	-122.14461108	4800409
1403820242629	88	4125234	331700	414	15	37.42431339	-122.14461108	4800409
1403820242737	88	4116705	262900	414	15	37.42431339	-122.14461108	4800409
1403820242852	88	4131702	254900	414	15	37.42431339	-122.14461108	4800409
1403820242981	88	4123470	282400	415	15	37.42431339	-122.14461108	4800409
1403820243091	88	4123176	242900	415	15	37.42431339	-122.14461108	4800409
1403820243185	88	4123176	242900	415	15	37.42425736	-122.14451192	4800409
1403820243208	88	4128468	297900	414	15	37.42425736	-122.14451192	4800409
1403820243321	88	4112001	450800	414	15	37.42425736	-122.14451192	4800409
1403820243432	88	4119351	373500	415	15	37.42425736	-122.14451192	4800409
1403820243543	88	4130820	293900	414	15	37.42425736	-122.14451192	4800409
1403820243665	88	4115529	287600	415	15	37.42425736	-122.14451192	4800409
1403820243777	88	4119939	230200	415	15	37.42425736	-122.14451192	4800409
1403820243893	88	4132881	244600	415	15	37.42425736	-122.14451192	4800409
1403820244021	88	4124352	244000	415	15	37.42425736	-122.14451192	4800409
1403820244134	88	4126998	280100	415	15	37.42425736	-122.14451192	4800409
1403820244188	88	4126998	280100	415	15	37.42421111	-122.14441338	4800409
1403820244258	88	4131114	282400	414	15	37.42421111	-122.14441338	4800409
1403820244369	88	4119351	356800	415	15	37.42421111	-122.14441338	4800409
1403820244478	88	4125528	340900	414	15	37.42421111	-122.14441338	4800409
1403820244592	88	4134645	277200	414	15	37.42421111	-122.14441338	4800409
1403820244718	88	4118763	270300	415	15	37.42421111	-122.14441338	4800409
1403820244827	88	4113177	301900	415	15	37.42421111	-122.14441338	4800409
1403820244952	88	4131702	243400	414	15	37.42421111	-122.14441338	4800409
1403820245086	88	4058184	487500	416	15	37.42421111	-122.14441338	4800409
1403820245173	88	4058184	487500	416	15	37.42415448	-122.1443144	4800409
1403820245196	88	4106118	495000	415	15	37.42415448	-122.1443144	4800409
1403820245306	88	4113471	453200	415	15	37.42415448	-122.1443144	4800409
1403820245414	88	4115529	402100	415	15	37.42415448	-122.1443144	4800409
1403820245525	88	4124940	321300	415	15	37.42415448	-122.1443144	4800409
1403820245671	88	4123470	327700	415	15	37.42415448	-122.1443144	4800409
1403820245799	88	4113471	403300	416	15	37.42415448	-122.1443144	4800409
1403820245910	88	4119351	413700	415	15	37.42415448	-122.1443144	4800409
1403820246027	88	4102296	362600	415	15	37.42415448	-122.1443144	4800409
1403820246159	88	4098180	363800	415	15	37.42415448	-122.1443144	4800409
1403820246189	88	4098180	363800	415	15	37.42409146	-122.14420017	4800409
1403820246276	88	4115823	398100	415	15	37.42409146	-122.14420017	4800409
1403820246409	88	4122294	337900	415	15	37.42409146	-122.14420017	4800409
1403820246525	88	4114941	391800	415	15	37.42409146	-122.14420017	4800409
1403820246636	88	4111413	375800	415	15	37.42409146	-122.14420017	4800409
1403820246751	88	4124058	288700	415	15	37.42409146	-122.14420017	4800409
1403820246888	88	4109649	380400	415	15	37.42409146	-122.14420017	4800409
1403820247000	88	4109355	341400	415	15	37.42409146	-122.14420017	4800409
1403820247118	88	4120530	347800	415	15	37.42409146	-122.14420017	4800409
1403820247207	88	4120530	347800	415	15	37.42403789	-122.14409742	4800409
1403820247246	88	4106706	489300	415	15	37.42403789	-122.14409742	4800409
1403820247366	88	4110825	321300	416	15	37.42403789	-122.14409742	4800409
1403820247497	88	4124058	312800	415	15	37.42403789	-122.14409742	4800409
1403820247620	88	4109061	384900	415	15	37.42403789	-122.14409742	4800409
1403820247731	88	4115823	363200	416	15	37.42403789	-122.14409742	4800409
1403820247846	88	4124646	330500	415	15	37.42403789	-122.14409742	4800409
1403820247981	88	4117293	333900	416	15	37.42403789	-122.14409742	4800409
1403820248091	88	4112589	341400	416	15	37.42403789	-122.14409742	4800409
1403820248215	88	4117293	356800	415	15	37.42403789	-122.14409742	4800409
1403820248336	88	4107588	383200	416	15	37.42403789	-122.14409742	4800409
1403820248447	88	4105236	338600	416	15	37.42403789	-122.14409742	4800409
1403820248561	88	4122588	330000	415	15	37.42403789	-122.14409742	4800409
1403820248691	88	4117881	338600	416	15	37.42403789	-122.14409742	4800409
1403820248801	88	4118763	300100	416	15	37.42403789	-122.14409742	4800409
1403820248925	88	4122588	308100	415	15	37.42403789	-122.14409742	4800409
1403820249055	88	4113765	350600	416	15	37.42403789	-122.14409742	4800409
1403820249179	88	4122588	389600	415	15	37.42403789	-122.14409742	4800409
1403820249200	88	4122588	389600	415	15	37.42392861	-122.14392498	4800409
1403820249308	88	4111413	331700	415	15	37.42392861	-122.14392498	4800409
1403820249432	88	4121118	455500	416	15	37.42392861	-122.14392498	4800409
1403820249552	88	4118175	305900	415	15	37.42392861	-122.14392498	4800409
1403820249668	88	4123176	319700	415	15	37.42392861	-122.14392498	4800409
1403820249801	88	4118175	295000	416	15	37.42392861	-122.14392498	4800409
1403820249913	88	4120530	347800	416	15	37.42392861	-122.14392498	4800409
1403820250039	88	4122294	307000	416	15	37.42392861	-122.14392498	4800409
1403820250168	88	4105236	367800	416	15	37.42392861	-122.14392498	4800409
1403820250277	88	4105236	567200	416	15	37.42392861	-122.14392498	4800409
1403820250397	88	4122588	320200	415	15	37.42392861	-122.14392498	4800409
1403820250531	88	4113471	341400	416	15	37.42392861	-122.14392498	4800409
1403820250643	88	4110531	460000	415	15	37.42392861	-122.14392498	4800409
1403820250755	88	4117293	376900	415	15	37.42392861	-122.14392498	4800409
1403820250888	88	4107588	415900	416	15	37.42392861	-122.14392498	4800409
1403820250995	88	4120824	431900	415	15	37.42392861	-122.14392498	4800409
1403820251108	88	4126116	275000	415	15	37.42392861	-122.14392498	4800409
1403820251191	88	4126116	275000	415	15	37.42383849	-122.14373174	4800409
1403820251242	88	4113471	255400	415	15	37.42383849	-122.14373174	4800409
1403820251352	88	4124646	278400	415	15	37.42383849	-122.14373174	4800409
1403820251480	88	4127292	286400	415	15	37.42383849	-122.14373174	4800409
1403820251596	88	4112883	326500	416	15	37.42383849	-122.14373174	4800409
1403820251707	88	4119057	291600	415	15	37.42383849	-122.14373174	4800409
1403820251821	88	4130232	272100	415	15	37.42383849	-122.14373174	4800409
1403820251949	88	4118763	229100	416	15	37.42383849	-122.14373174	4800409
1403820252061	88	4121412	382100	415	15	37.42383849	-122.14373174	4800409
1403820252189	88	4126410	304800	415	15	37.42383849	-122.14373174	4800409
1403820252308	88	4121412	345400	415	15	37.42383849	-122.14373174	4800409
1403820252415	88	4122882	331700	415	15	37.42383849	-122.14373174	4800409
1403820252531	88	4126410	273800	415	15	37.42383849	-122.14373174	4800409
1403820252664	88	4116999	226800	415	15	37.42383849	-122.14373174	4800409
1403820252776	88	4115235	370000	415	15	37.42383849	-122.14373174	4800409
1403820252888	88	4124352	301900	416	15	37.42383849	-122.14373174	4800409
1403820253023	88	4109943	337900	415	15	37.42383849	-122.14373174	4800409
1403820253135	88	4114941	284700	415	15	37.42383849	-122.14373174	4800409
1403820253231	88	4114941	284700	415	15	37.42377349	-122.14355014	4800409
1403820253269	88	4105530	460000	415	15	37.42377349	-122.14355014	4800409
1403820253380	88	4121118	358000	415	15	37.42377349	-122.14355014	4800409
1403820253493	88	4127292	316200	415	15	37.42377349	-122.14355014	4800409
1403820253612	88	4129644	249200	415	15	37.42377349	-122.14355014	4800409
1403820253777	88	4118175	276100	415	15	37.42377349	-122.14355014	4800409
1403820253890	88	4114059	362000	415	15	37.42377349	-122.14355014	4800409
1403820254006	88	4117293	295600	415	15	37.42377349	-122.14355014	4800409
1403820254146	88	4128468	262300	415	15	37.42377349	-122.14355014	4800409
1403820254198	88	4128468	262300	415	15	37.423743	-122.14343894	4800409
1403820254271	88	4115529	308800	415	15	37.423743	-122.14343894	4800409
1403820254390	88	4118469	297300	415	15	37.423743	-122.14343894	4800409
1403820254509	88	4128762	249200	415	15	37.423743	-122.14343894	4800409
1403820254633	88	4123176	259500	414	15	37.423743	-122.14343894	4800409
1403820254755	88	4132881	256100	415	15	37.423743	-122.14343894	4800409
1403820254886	88	4105824	469200	415	15	37.423743	-122.14343894	4800409
1403820254994	88	4114059	368300	415	15	37.423743	-122.14343894	4800409
1403820255125	88	4114059	354600	414	15	37.423743	-122.14343894	4800409
1403820255260	88	4111119	357500	415	15	37.423743	-122.14343894	4800409
1403820255370	88	4117881	229700	415	15	37.423743	-122.14343894	4800409
1403820255485	88	4129644	278400	415	15	37.423743	-122.14343894	4800409
1403820255609	88	4126410	261100	415	15	37.423743	-122.14343894	4800409
1403820255723	88	4111707	364300	415	15	37.423743	-122.14343894	4800409
1403820255836	88	4131408	298400	415	15	37.423743	-122.14343894	4800409
1403820255969	88	4114353	300800	415	15	37.423743	-122.14343894	4800409
1403820256084	88	4126410	317300	416	15	37.423743	-122.14343894	4800409
1403820256189	88	4126410	317300	416	15	37.42367254	-122.14323993	4800409
1403820256218	88	4130232	296100	415	15	37.42367254	-122.14323993	4800409
1403820256334	88	4122882	304100	415	15	37.42367254	-122.14323993	4800409
1403820256445	88	4121412	393000	415	15	37.42367254	-122.14323993	4800409
1403820256557	88	4127880	307000	415	15	37.42367254	-122.14323993	4800409
1403820256692	88	4120530	331700	415	15	37.42367254	-122.14323993	4800409
1403820256802	88	4122882	237700	415	15	37.42367254	-122.14323993	4800409
1403820256921	88	4116999	315600	414	15	37.42367254	-122.14323993	4800409
1403820257059	88	4127292	321300	415	15	37.42367254	-122.14323993	4800409
1403820257186	88	4129056	299100	415	15	37.42367254	-122.14323993	4800409
1403820257308	88	4130820	259500	415	15	37.42367254	-122.14323993	4800409
1403820257445	88	4130232	262300	415	15	37.42367254	-122.14323993	4800409
1403820257576	88	4126116	302400	415	15	37.42367254	-122.14323993	4800409
1403820257697	88	4125234	328800	415	15	37.42367254	-122.14323993	4800409
1403820257831	88	4120824	378700	415	15	37.42367254	-122.14323993	4800409
1403820257943	88	4124646	230800	415	15	37.42367254	-122.14323993	4800409
1403820258059	88	4125234	285900	415	15	37.42367254	-122.14323993	4800409
1403820258199	88	4111119	407300	415	15	37.42359117	-122.14306226	4800409
1403820258199	88	4111119	407300	415	15	37.42359117	-122.14306226	4800409
1403820258309	88	4110531	339700	415	15	37.42359117	-122.14306226	4800409
1403820258440	88	4116999	367800	415	15	37.42359117	-122.14306226	4800409
1403820258556	88	4115529	300800	415	15	37.42359117	-122.14306226	4800409
1403820258670	88	4113471	252100	415	15	37.42359117	-122.14306226	4800409
1403820258797	88	4129350	287000	415	15	37.42359117	-122.14306226	4800409
1403820258939	88	4114059	311600	415	15	37.42359117	-122.14306226	4800409
1403820259054	88	4130820	301300	414	15	37.42359117	-122.14306226	4800409
1403820259185	88	4128174	298400	415	15	37.42359117	-122.14306226	4800409
1403820259317	88	4100238	497300	415	15	37.42359117	-122.14306226	4800409
1403820259430	88	4102002	260600	415	15	37.42359117	-122.14306226	4800409
1403820259547	88	4114353	282400	415	15	37.42359117	-122.14306226	4800409
1403820259667	88	4115823	281800	415	15	37.42359117	-122.14306226	4800409
1403820259783	88	4128174	264100	415	15	37.42359117	-122.14306226	4800409
1403820259903	88	4132290	245200	415	15	37.42359117	-122.14306226	4800409
1403820260045	88	4126410	299600	415	15	37.42359117	-122.14306226	4800409
1403820260185	88	4129644	275500	415	15	37.42359117	-122.14306226	4800409
1403820260201	88	4129644	275500	415	15	37.42350785	-122.1428976	4800409
1403820260308	88	4123176	304800	415	15	37.42350785	-122.1428976	4800409
1403820260425	88	4120236	311000	415	15	37.42350785	-122.1428976	4800409
1403820260541	88	4129644	299600	415	15	37.42350785	-122.1428976	4800409
1403820260661	88	4119057	266300	415	15	37.42350785	-122.1428976	4800409
1403820260792	88	4124352	364300	415	15	37.42350785	-122.1428976	4800409
1403820260903	88	4125822	226800	415	15	37.42350785	-122.1428976	4800409
1403820261028	88	4116705	360300	416	15	37.42350785	-122.1428976	4800409
1403820261171	88	4064655	666300	416	15	37.42350785	-122.1428976	4800409
1403820261286	88	4112295	455500	415	15	37.42350785	-122.1428976	4800409
1403820261407	88	4094649	403800	416	15	37.42350785	-122.1428976	4800409
1403820261555	88	4116117	324800	416	15	37.42350785	-122.1428976	4800409
1403820261676	88	4090239	374100	416	15	37.42350785	-122.1428976	4800409
1403820261800	88	4112295	416500	416	15	37.42350785	-122.1428976	4800409
1403820261930	88	4116705	291000	416	15	37.42350785	-122.1428976	4800409
1403820262040	88	4113765	349400	416	15	37.42350785	-122.1428976	4800409
1403820262187	88	4117293	328200	416	15	37.42350785	-122.1428976	4800409
1403820262311	88	4116117	388400	416	15	37.42350785	-122.1428976	4800409
1403820262419	88	4103766	472600	416	15	37.42350785	-122.1428976	4800409
1403820262527	88	4099650	490400	417	15	37.42350785	-122.1428976	4800409
1403820262635	88	4098768	467500	417	15	37.42350785	-122.1428976	4800409
1403820262745	88	4114059	318000	416	15	37.42350785	-122.1428976	4800409
1403820262861	88	4119645	331100	416	15	37.42350785	-122.1428976	4800409
1403820262991	88	4106706	392400	416	15	37.42350785	-122.1428976	4800409
1403820263103	88	4106118	391300	416	15	37.42350785	-122.1428976	4800409
1403820263209	88	4106118	391300	416	15	37.42347363	-122.14278843	4800409
1403820263238	88	4117293	371200	416	15	37.42347363	-122.14278843	4800409
1403820263346	88	4112295	345400	416	15	37.42347363	-122.14278843	4800409
1403820263459	88	4102590	441100	416	15	37.42347363	-122.14278843	4800409
1403820263574	88	4119645	345400	416	15	37.42347363	-122.14278843	4800409
1403820263701	88	4114353	371200	416	15	37.42347363	-122.14278843	4800409
1403820263812	88	4114059	435400	416	15	37.42347363	-122.14278843	4800409
1403820263925	88	4108473	309300	416	15	37.42347363	-122.14278843	4800409
1403820264058	88	4106412	371800	416	15	37.42347363	-122.14278843	4800409
1403820264169	88	4104060	411900	416	15	37.42347363	-122.14278843	4800409
1403820264284	88	4117587	399300	416	15	37.42347363	-122.14278843	4800409
1403820264418	88	4099944	365500	416	15	37.42347363	-122.14278843	4800409
1403820264526	88	4083771	436600	417	15	37.42347363	-122.14278843	4800409
1403820264635	88	4086123	549400	417	15	37.42347363	-122.14278843	4800409
1403820264755	88	4102002	450300	417	15	37.42347363	-122.14278843	4800409
1403820264862	88	4099650	448600	417	15	37.42347363	-122.14278843	4800409
1403820264973	88	4110531	375200	416	15	37.42347363	-122.14278843	4800409
1403820265095	88	4103766	378700	416	15	37.42347363	-122.14278843	4800409
1403820265212	88	4097592	485800	416	15	37.42347363	-122.14278843	4800409
1403820265340	88	4085535	531100	417	15	37.42347363	-122.14278843	4800409
1403820265448	88	4088769	547700	417	15	37.42347363	-122.14278843	4800409
1403820265555	88	4091415	556900	417	15	37.42347363	-122.14278843	4800409
1403820265676	88	4117881	359200	416	15	37.42347363	-122.14278843	4800409
1403820265803	88	4112295	359200	417	15	37.42347363	-122.14278843	4800409
1403820265915	88	4107000	346000	416	15	37.42347363	-122.14278843	4800409
1403820266045	88	4110237	347800	417	15	37.42347363	-122.14278843	4800409
1403820266179	88	4076418	705300	417	15	37.42347363	-122.14278843	4800409
1403820266287	88	4088181	586700	417	15	37.42347363	-122.14278843	4800409
1403820266393	88	4096122	490400	418	15	37.42347363	-122.14278843	4800409
1403820266502	88	4104648	454300	416	15	37.42347363	-122.14278843	4800409
1403820266610	88	4115529	431400	415	15	37.42347363	-122.14278843	4800409
1403820266722	88	4124058	291000	416	15	37.42347363	-122.14278843	4800409
1403820266851	88	4129056	254300	415	15	37.42347363	-122.14278843	4800409
1403820266970	88	4119645	375800	416	15	37.42347363	-122.14278843	4800409
1403820267091	88	4129056	282400	415	15	37.42347363	-122.14278843	4800409
1403820267222	88	4122294	320200	416	15	37.42347363	-122.14278843	4800409
1403820267333	88	4124940	279000	417	15	37.42347363	-122.14278843	4800409
1403820267456	88	4126410	258900	416	15	37.42347363	-122.14278843	4800409
1403820267592	88	4124352	292100	416	15	37.42347363	-122.14278843	4800409
1403820267705	88	4114059	243400	416	15	37.42347363	-122.14278843	4800409
1403820267831	88	4127880	236500	415	15	37.42347363	-122.14278843	4800409
1403820267974	88	4127292	321300	416	15	37.42347363	-122.14278843	4800409
1403820268097	88	4125822	312200	415	15	37.42347363	-122.14278843	4800409
1403820268216	88	4118175	332200	416	15	37.42347363	-122.14278843	4800409
1403820268337	88	4116705	247400	416	15	37.42347363	-122.14278843	4800409
1403820268455	88	4134057	248600	416	15	37.42347363	-122.14278843	4800409
1403820268576	88	4134057	260100	415	15	37.42347363	-122.14278843	4800409
1403820268717	88	4126410	283000	416	15	37.42347363	-122.14278843	4800409
1403820268841	88	4127880	258300	416	15	37.42347363	-122.14278843	4800409
1403820268966	88	4129938	268600	416	15	37.42347363	-122.14278843	4800409
1403820269109	88	4117293	298400	416	15	37.42347363	-122.14278843	4800409
1403820269224	88	4126704	326500	416	15	37.42347363	-122.14278843	4800409
1403820269351	88	4121118	271500	416	15	37.42347363	-122.14278843	4800409
1403820269483	88	4121706	393000	416	15	37.42347363	-122.14278843	4800409
1403820269593	88	4122588	312200	416	15	37.42347363	-122.14278843	4800409
1403820269716	88	4131114	247400	416	15	37.42347363	-122.14278843	4800409
1403820269852	88	4126704	291000	416	15	37.42347363	-122.14278843	4800409
1403820269966	88	4116411	281200	417	15	37.42347363	-122.14278843	4800409
1403820270086	88	4130820	252100	416	15	37.42347363	-122.14278843	4800409
1403820270225	88	4101708	386100	416	15	37.42347363	-122.14278843	4800409
1403820270336	88	4112589	363200	417	15	37.42347363	-122.14278843	4800409
1403820270451	88	4125234	242200	415	15	37.42347363	-122.14278843	4800409
1403820270582	88	4116411	224500	416	15	37.42347363	-122.14278843	4800409
1403820270695	88	4114941	245700	416	15	37.42347363	-122.14278843	4800409
1403820270809	88	4128174	227300	416	15	37.42347363	-122.14278843	4800409
1403820270947	88	4101708	284700	416	15	37.42347363	-122.14278843	4800409
1403820271059	88	4112589	396400	416	15	37.42347363	-122.14278843	4800409
1403820271180	88	4129350	347100	415	15	37.42347363	-122.14278843	4800409
1403820271298	88	4122294	343700	416	15	37.42347363	-122.14278843	4800409
1403820271411	88	4123176	300100	416	15	37.42347363	-122.14278843	4800409
1403820271525	88	4132290	256100	416	15	37.42347363	-122.14278843	4800409
1403820271667	88	4106706	382700	416	15	37.42347363	-122.14278843	4800409
1403820271779	88	4112589	342600	415	15	37.42347363	-122.14278843	4800409
1403820271894	88	4130232	258300	415	15	37.42347363	-122.14278843	4800409
1403820272023	88	4114941	257800	417	15	37.42347363	-122.14278843	4800409
1403820272133	88	4126704	226300	416	15	37.42347363	-122.14278843	4800409
1403820272258	88	4129056	267500	415	15	37.42347363	-122.14278843	4800409
1403820272388	88	4120824	300800	415	15	37.42347363	-122.14278843	4800409
1403820272499	88	4116117	314500	416	15	37.42347363	-122.14278843	4800409
1403820272614	88	4134939	247400	415	15	37.42347363	-122.14278843	4800409
1403820272740	88	4125822	221600	416	15	37.42347363	-122.14278843	4800409
1403820272850	88	4127586	224000	416	15	37.42347363	-122.14278843	4800409
1403820272972	88	4131114	251400	416	15	37.42347363	-122.14278843	4800409
1403820273102	88	4119645	356800	416	15	37.42347363	-122.14278843	4800409
1403820273211	88	4110531	299600	416	15	37.42347363	-122.14278843	4800409
1403820273332	88	4126410	266300	416	15	37.42347363	-122.14278843	4800409
1403820273456	88	4115823	262900	416	15	37.42347363	-122.14278843	4800409
1403820273567	88	4113765	278400	416	15	37.42347363	-122.14278843	4800409
1403820273691	88	4130526	265800	415	15	37.42347363	-122.14278843	4800409
1403820273820	88	4122294	285900	416	15	37.42347363	-122.14278843	4800409
1403820273929	88	4124940	295000	415	15	37.42347363	-122.14278843	4800409
1403820274044	88	4131114	253800	415	15	37.42347363	-122.14278843	4800409
1403820274172	88	4110531	325400	416	15	37.42347363	-122.14278843	4800409
1403820274290	88	4116411	297900	415	15	37.42347363	-122.14278843	4800409
1403820274403	88	4128762	284100	415	15	37.42347363	-122.14278843	4800409
1403820274529	88	4108179	444000	415	15	37.42347363	-122.14278843	4800409
1403820274642	88	4111413	295000	417	15	37.42347363	-122.14278843	4800409
1403820274758	88	4130232	245200	416	15	37.42347363	-122.14278843	4800409
1403820274890	88	4124058	280100	416	15	37.42347363	-122.14278843	4800409
1403820275004	88	4107588	271500	416	15	37.42347363	-122.14278843	4800409
1403820275118	88	4130232	297900	415	15	37.42347363	-122.14278843	4800409
1403820275254	88	4090239	491000	416	15	37.42347363	-122.14278843	4800409
1403820275364	88	4109355	401600	416	15	37.42347363	-122.14278843	4800409
1403820275473	88	4113471	409000	416	15	37.42347363	-122.14278843	4800409
1403820275590	88	4124058	319700	416	15	37.42347363	-122.14278843	4800409
1403820275704	88	4117881	434300	416	15	37.42347363	-122.14278843	4800409
1403820275815	88	4112883	251400	416	15	37.42347363	-122.14278843	4800409
1403820275940	88	4124352	332200	416	15	37.42347363	-122.14278843	4800409
1403820276061	88	4125528	262300	415	15	37.42347363	-122.14278843	4800409
1403820276185	88	4126116	289200	415	15	37.42347363	-122.14278843	4800409
1403820276303	88	4103766	473200	415	15	37.42347363	-122.14278843	4800409
1403820276416	88	4086711	514400	417	15	37.42347363	-122.14278843	4800409
1403820276523	88	4094355	529900	417	15	37.42347363	-122.14278843	4800409
1403820276635	88	4072302	467500	418	15	37.42347363	-122.14278843	4800409
1403820276742	88	4073184	622200	417	15	37.42347363	-122.14278843	4800409
1403820276855	88	4117881	377500	417	15	37.42347363	-122.14278843	4800409
1403820276986	88	4111707	456600	417	15	37.42347363	-122.14278843	4800409
1403820277110	88	4113765	346000	416	15	37.42347363	-122.14278843	4800409
1403820277228	88	4113471	380900	417	15	37.42347363	-122.14278843	4800409
1403820277363	88	4109061	755100	417	15	37.42347363	-122.14278843	4800409
1403820277481	88	4115823	350600	416	15	37.42347363	-122.14278843	4800409
1403820277600	88	4120530	409600	416	15	37.42347363	-122.14278843	4800409
1403820277731	88	4115823	326500	417	15	37.42347363	-122.14278843	4800409
1403820277840	88	4111413	364300	417	15	37.42347363	-122.14278843	4800409
1403820277962	88	4124058	285900	417	15	37.42347363	-122.14278843	4800409
1403820278093	88	4096122	464600	417	15	37.42347363	-122.14278843	4800409
1403820278205	88	4114647	573500	417	15	37.42347363	-122.14278843	4800409
1403820278322	88	4120824	304800	417	15	37.42347363	-122.14278843	4800409
1403820278461	88	4115235	383800	417	15	37.42347363	-122.14278843	4800409
1403820278576	88	4099062	394800	417	15	37.42347363	-122.14278843	4800409
1403820278692	88	4117881	385600	416	15	37.42347363	-122.14278843	4800409
1403820278827	88	4119351	323700	416	15	37.42347363	-122.14278843	4800409
1403820278950	88	4118763	290400	416	15	37.42347363	-122.14278843	4800409
1403820279072	88	4114353	332900	417	15	37.42347363	-122.14278843	4800409
1403820279223	88	4106118	495000	417	15	37.42347363	-122.14278843	4800409
1403820279336	88	4119057	401000	417	15	37.42347363	-122.14278843	4800409
1403820279458	88	4117881	295600	417	15	37.42347363	-122.14278843	4800409
1403820279589	88	4109649	398800	417	15	37.42347363	-122.14278843	4800409
1403820279699	88	4098180	383200	417	15	37.42347363	-122.14278843	4800409
1403820279812	88	4117587	359800	417	15	37.42347363	-122.14278843	4800409
1403820279935	88	4112883	476100	417	15	37.42347363	-122.14278843	4800409
1403820280047	88	4112295	412500	417	15	37.42347363	-122.14278843	4800409
1403820280181	88	4106412	358600	416	15	37.42347363	-122.14278843	4800409
1403820280299	88	4107588	330000	417	15	37.42347363	-122.14278843	4800409
1403820280414	88	4114353	326500	417	15	37.42347363	-122.14278843	4800409
1403820280529	88	4118469	352900	417	15	37.42347363	-122.14278843	4800409
1403820280662	88	4122882	356300	417	15	37.42347363	-122.14278843	4800409
1403820280782	88	4124058	303100	417	15	37.42347363	-122.14278843	4800409
1403820280902	88	4124646	297900	417	15	37.42347363	-122.14278843	4800409
1403820281037	88	4100826	444000	417	15	37.42347363	-122.14278843	4800409
1403820281161	88	4100826	397600	417	15	37.42347363	-122.14278843	4800409
1403820281283	88	4108179	491500	417	15	37.42347363	-122.14278843	4800409
1403820281398	88	4106412	435900	417	15	37.42347363	-122.14278843	4800409
1403820281507	88	4106412	411300	417	15	37.42347363	-122.14278843	4800409
1403820281634	88	4114353	512700	417	15	37.42347363	-122.14278843	4800409
1403820281757	88	4052892	456000	417	15	37.42347363	-122.14278843	4800409
1403820281867	88	4105236	442300	417	15	37.42347363	-122.14278843	4800409
1403820281982	88	4118175	373500	417	15	37.42347363	-122.14278843	4800409
1403820282106	88	4096122	445100	417	15	37.42347363	-122.14278843	4800409
1403820282216	88	4112001	350600	417	15	37.42347363	-122.14278843	4800409
1403820282334	88	4118763	309900	417	15	37.42347363	-122.14278843	4800409
1403820282464	88	4099944	464000	417	15	37.42347363	-122.14278843	4800409
1403820282573	88	4111119	433600	417	15	37.42347363	-122.14278843	4800409
1403820282688	88	4112883	362600	417	15	37.42347363	-122.14278843	4800409
1403820282817	88	4104648	443400	417	15	37.42347363	-122.14278843	4800409
1403820282928	88	4103178	370700	417	15	37.42347363	-122.14278843	4800409
1403820283040	88	4120236	329400	417	15	37.42347363	-122.14278843	4800409
1403820283178	88	4097886	395800	417	15	37.42347363	-122.14278843	4800409
1403820283287	88	4096122	382700	417	15	37.42347363	-122.14278843	4800409
1403820283402	88	4117293	345400	417	15	37.42347363	-122.14278843	4800409
1403820283528	88	4111413	309900	417	15	37.42347363	-122.14278843	4800409
1403820283638	88	4106118	264600	417	15	37.42347363	-122.14278843	4800409
1403820283750	88	4129350	279000	417	15	37.42347363	-122.14278843	4800409
1403820283886	88	4107294	373500	417	15	37.42347363	-122.14278843	4800409
1403820283996	88	4116117	331100	417	15	37.42347363	-122.14278843	4800409
1403820284112	88	4124352	296100	417	15	37.42347363	-122.14278843	4800409
1403820284238	88	4112295	309900	417	15	37.42347363	-122.14278843	4800409
1403820284347	88	4112295	333900	417	15	37.42347363	-122.14278843	4800409
1403820284461	88	4114059	294400	417	15	37.42347363	-122.14278843	4800409
1403820284596	88	4103766	375800	418	15	37.42347363	-122.14278843	4800409
1403820284704	88	4082298	575800	417	15	37.42347363	-122.14278843	4800409
1403820284815	88	4109061	403800	417	15	37.42347363	-122.14278843	4800409
1403820284937	88	4115235	367200	417	15	37.42347363	-122.14278843	4800409
1403820285048	88	4114353	250300	416	15	37.42347363	-122.14278843	4800409
1403820285171	88	4131408	299600	416	15	37.42347363	-122.14278843	4800409
1403820285322	88	4114941	364900	416	15	37.42347363	-122.14278843	4800409
1403820285435	88	4124058	315000	416	15	37.42347363	-122.14278843	4800409
1403820285551	88	4129056	256600	416	15	37.42347363	-122.14278843	4800409
1403820285682	88	4123764	296700	416	15	37.42347363	-122.14278843	4800409
1403820285795	88	4110531	235400	416	15	37.42347363	-122.14278843	4800409
1403820285911	88	4125234	332200	416	15	37.42347363	-122.14278843	4800409
1403820286043	88	4131114	295600	416	15	37.42347363	-122.14278843	4800409
1403820286169	88	4128762	284700	417	15	37.42347363	-122.14278843	4800409
1403820286290	88	4120824	352900	417	15	37.42347363	-122.14278843	4800409
1403820286404	88	4119939	357500	416	15	37.42347363	-122.14278843	4800409
1403820286521	88	4128174	294400	416	15	37.42347363	-122.14278843	4800409
1403820286635	88	4095828	512200	416	15	37.42347363	-122.14278843	4800409
1403820286753	88	4097592	477800	416	15	37.42347363	-122.14278843	4800409
1403820286864	88	4100238	462900	416	15	37.42347363	-122.14278843	4800409
1403820286977	88	4099650	485800	417	15	37.42347363	-122.14278843	4800409
1403820287094	88	4077006	599900	417	15	37.42347363	-122.14278843	4800409
1403820287200	88	4089357	701300	417	15	37.42347363	-122.14278843	4800409
1403820287307	88	4093767	501900	417	15	37.42347363	-122.14278843	4800409
1403820287421	88	4099650	417000	417	15	37.42347363	-122.14278843	4800409
1403820287530	88	4112883	466400	417	15	37.42347363	-122.14278843	4800409
1403820287639	88	4101414	416500	417	15	37.42347363	-122.14278843	4800409
1403820287750	88	4074948	566600	417	15	37.42347363	-122.14278843	4800409
1403820287860	88	4072008	661100	416	15	37.42347363	-122.14278843	4800409
1403820287968	88	4062303	570100	418	15	37.42347363	-122.14278843	4800409
1403820288083	88	4082004	663400	417	15	37.42347363	-122.14278843	4800409
1403820288191	88	4055538	648000	417	15	37.42347363	-122.14278843	4800409
1403820288297	88	4091121	511600	417	15	37.42347363	-122.14278843	4800409
1403820288414	88	4088475	522400	417	15	37.42347363	-122.14278843	4800409
1403820288522	88	4086123	516200	418	15	37.42347363	-122.14278843	4800409
1403820288632	88	4093473	520200	417	15	37.42347363	-122.14278843	4800409
1403820288753	88	4080534	618100	417	15	37.42347363	-122.14278843	4800409
1403820288861	88	4088181	563700	417	15	37.42347363	-122.14278843	4800409
1403820288968	88	4091709	534000	418	15	37.42347363	-122.14278843	4800409
1403820289083	88	4089651	521900	418	15	37.42347363	-122.14278843	4800409
1403820289192	88	4082004	531100	417	15	37.42347363	-122.14278843	4800409
1403820289299	88	4092591	506500	417	15	37.42347363	-122.14278843	4800409
1403820289414	88	4091121	514400	417	15	37.42347363	-122.14278843	4800409
1403820289521	88	4086711	521900	417	15	37.42347363	-122.14278843	4800409
1403820289629	88	4076124	589000	417	15	37.42347363	-122.14278843	4800409
1403820289744	88	4079946	534500	418	15	37.42347363	-122.14278843	4800409
1403820289851	88	4069065	623900	417	15	37.42347363	-122.14278843	4800409
1403820289958	88	4076712	598700	417	15	37.42347363	-122.14278843	4800409
1403820290073	88	4051422	862300	418	15	37.42347363	-122.14278843	4800409
1403820290181	88	4050246	748800	418	15	37.42347363	-122.14278843	4800409
1403820290287	88	4082298	552900	417	15	37.42347363	-122.14278843	4800409
1403820290397	88	4101120	430200	418	15	37.42347363	-122.14278843	4800409
1403820290503	88	4110237	378700	417	15	37.42347363	-122.14278843	4800409
1403820290620	88	4124646	248600	417	15	37.42347363	-122.14278843	4800409
1403820290760	88	4102590	392400	417	15	37.42347363	-122.14278843	4800409
1403820290870	88	4111413	382100	417	15	37.42347363	-122.14278843	4800409
1403820290984	88	4114647	329400	417	15	37.42347363	-122.14278843	4800409
1403820291112	88	4120530	328800	417	15	37.42347363	-122.14278843	4800409
1403820291222	88	4119645	293300	417	15	37.42347363	-122.14278843	4800409
1403820291338	88	4119645	309300	418	15	37.42347363	-122.14278843	4800409
1403820291479	88	4114941	332200	417	15	37.42347363	-122.14278843	4800409
1403820291601	88	4116117	328200	417	15	37.42347363	-122.14278843	4800409
1403820291717	88	4112295	265200	417	15	37.42347363	-122.14278843	4800409
1403820291836	88	4124058	298400	417	15	37.42347363	-122.14278843	4800409
1403820291951	88	4129644	252600	417	15	37.42347363	-122.14278843	4800409
1403820292082	88	4131996	237700	418	15	37.42347363	-122.14278843	4800409
1403820292202	88	4106118	369500	417	15	37.42347363	-122.14278843	4800409
1403820292315	88	4113471	316800	417	15	37.42347363	-122.14278843	4800409
1403820292431	88	4128468	277800	417	15	37.42347363	-122.14278843	4800409
1403820292566	88	4129350	260100	418	15	37.42347363	-122.14278843	4800409
1403820292698	88	4129350	260600	417	15	37.42347363	-122.14278843	4800409
1403820292821	88	4117881	302400	417	15	37.42347363	-122.14278843	4800409
1403820292952	88	4118763	288700	418	15	37.42347363	-122.14278843	4800409
1403820293066	88	4106706	333400	419	15	37.42347363	-122.14278843	4800409
1403820293184	88	4076124	400500	418	15	37.42347363	-122.14278843	4800409
1403820293316	88	4049952	756800	419	15	37.42347363	-122.14278843	4800409
1403820293422	88	4091709	489300	419	15	37.42347363	-122.14278843	4800409
1403820293536	88	4095237	368900	418	15	37.42347363	-122.14278843	4800409
1403820293676	88	4073772	501900	419	15	37.42347363	-122.14278843	4800409
1403820293797	88	4117293	359800	418	15	37.42347363	-122.14278843	4800409
1403820293926	88	4077300	556400	419	15	37.42347363	-122.14278843	4800409
1403820294047	88	4081710	646200	419	15	37.42347363	-122.14278843	4800409
1403820294154	88	4074066	664000	419	15	37.42347363	-122.14278843	4800409
1403820294261	88	4074360	704100	419	15	37.42347363	-122.14278843	4800409
1403820294373	88	4072890	642200	419	15	37.42347363	-122.14278843	4800409
1403820294480	88	4059951	656600	419	15	37.42347363	-122.14278843	4800409
1403820294587	88	4067007	603200	420	15	37.42347363	-122.14278843	4800409
1403820294696	88	4061127	783200	419	15	37.42347363	-122.14278843	4800409
1403820294819	88	4044657	873700	419	15	37.42347363	-122.14278843	4800409
1403820294926	88	4064949	696700	419	15	37.42347363	-122.14278843	4800409
1403820295034	88	4054068	743700	419	15	37.42347363	-122.14278843	4800409
1403820295143	88	4062891	655400	419	15	37.42347363	-122.14278843	4800409
1403820295250	88	4067889	654900	419	15	37.42347363	-122.14278843	4800409
1403820295358	88	4069653	723700	419	15	37.42347363	-122.14278843	4800409
1403820295465	88	4068477	660600	419	15	37.42347363	-122.14278843	4800409
1403820295571	88	4082592	560900	419	15	37.42347363	-122.14278843	4800409
1403820295695	88	4082886	566600	419	15	37.42347363	-122.14278843	4800409
1403820295802	88	4084065	558600	419	15	37.42347363	-122.14278843	4800409
1403820295909	88	4083771	553400	419	15	37.42347363	-122.14278843	4800409
1403820296030	88	4079652	591800	419	15	37.42347363	-122.14278843	4800409
1403820296138	88	4081416	602200	419	15	37.42347363	-122.14278843	4800409
1403820296245	88	4073184	566100	420	15	37.42347363	-122.14278843	4800409
1403820296363	88	4082886	612400	420	15	37.42347363	-122.14278843	4800409
1403820296471	88	4069065	659400	419	15	37.42347363	-122.14278843	4800409
1403820296578	88	4082004	558000	419	15	37.42347363	-122.14278843	4800409
1403820296697	88	4073478	551700	420	15	37.42347363	-122.14278843	4800409
1403820296804	88	4074948	623300	420	15	37.42347363	-122.14278843	4800409
1403820296911	88	4049364	737900	420	15	37.42347363	-122.14278843	4800409
1403820297034	88	4039365	893800	420	15	37.42347363	-122.14278843	4800409
1403820297141	88	4052010	760300	420	15	37.42347363	-122.14278843	4800409
1403820297248	88	4063185	776400	420	15	37.42347363	-122.14278843	4800409
1403820297356	88	4057890	679000	420	15	37.42347363	-122.14278843	4800409
1403820297463	88	4094061	477200	420	15	37.42347363	-122.14278843	4800409
1403820297576	88	4102590	408500	420	15	37.42347363	-122.14278843	4800409
1403820297699	88	4094943	398800	420	15	37.42347363	-122.14278843	4800409
1403820297812	88	4104942	291000	420	15	37.42347363	-122.14278843	4800409
1403820297931	88	4119939	283500	419	15	37.42347363	-122.14278843	4800409
1403820298061	88	4067889	499500	420	15	37.42347363	-122.14278843	4800409
1403820298172	88	4089651	698400	420	15	37.42347363	-122.14278843	4800409
1403820298282	88	4060833	606700	420	15	37.42347363	-122.14278843	4800409
1403820298401	88	4082592	568300	420	15	37.42347363	-122.14278843	4800409
1403820298509	88	4088181	531100	420	15	37.42347363	-122.14278843	4800409
1403820298618	88	4096416	472600	420	15	37.42347363	-122.14278843	4800409
1403820298734	88	4093179	489800	420	15	37.42347363	-122.14278843	4800409
1403820298841	88	4083183	511600	420	15	37.42347363	-122.14278843	4800409
1403820298948	88	4089651	527600	420	15	37.42347363	-122.14278843	4800409
1403820299065	88	4087593	528800	420	15	37.42347363	-122.14278843	4800409
1403820299172	88	4079652	587800	420	15	37.42347363	-122.14278843	4800409
1403820299280	88	4078476	544800	420	15	37.42347363	-122.14278843	4800409
1403820299405	88	4085829	540800	420	15	37.42347363	-122.14278843	4800409
1403820299512	88	4089063	525900	420	15	37.42347363	-122.14278843	4800409
1403820299619	88	4088475	521400	420	15	37.42347363	-122.14278843	4800409
1403820299743	88	4089651	525900	420	15	37.42347363	-122.14278843	4800409
1403820299851	88	4087887	524800	420	15	37.42347363	-122.14278843	4800409
1403820299958	88	4089357	517900	420	15	37.42347363	-122.14278843	4800409
1403820300077	88	4076712	577500	420	15	37.42347363	-122.14278843	4800409
1403820300187	88	4089945	558600	420	15	37.42347363	-122.14278843	4800409
1403820300296	88	4085241	513900	420	15	37.42347363	-122.14278843	4800409
1403820300413	88	4085241	516200	420	15	37.42347363	-122.14278843	4800409
1403820300520	88	4108473	379200	420	15	37.42347363	-122.14278843	4800409
1403820300628	88	4111119	368300	420	15	37.42347363	-122.14278843	4800409
1403820300742	88	4119351	275000	420	15	37.42347363	-122.14278843	4800409
1403820300857	88	4126998	256100	419	15	37.42347363	-122.14278843	4800409
1403820300978	88	4126704	291600	419	15	37.42347363	-122.14278843	4800409
1403820301115	88	4109649	328800	420	15	37.42347363	-122.14278843	4800409
1403820301224	88	4098474	464000	419	15	37.42347363	-122.14278843	4800409
1403820301334	88	4111413	326500	420	15	37.42347363	-122.14278843	4800409
1403820301460	88	4108473	289200	420	15	37.42347363	-122.14278843	4800409
1403820301576	88	4126704	251400	419	15	37.42347363	-122.14278843	4800409
1403820301711	88	4124352	241700	419	15	37.42347363	-122.14278843	4800409
1403820301845	88	4122882	268600	420	15	37.42347363	-122.14278843	4800409
1403820301970	88	4124058	225100	420	15	37.42347363	-122.14278843	4800409
1403820302089	88	4123764	252600	419	15	37.42347363	-122.14278843	4800409
1403820302231	88	4123764	252600	419	15	37.4234122	-122.14267733	4800409
1403820302238	88	4100238	465700	420	15	37.4234122	-122.14267733	4800409
1403820302345	88	4119057	253800	420	15	37.4234122	-122.14267733	4800409
1403820302469	88	4126410	271500	420	15	37.4234122	-122.14267733	4800409
1403820302586	88	4107588	230800	420	15	37.4234122	-122.14267733	4800409
1403820302703	88	4104942	436600	420	15	37.4234122	-122.14267733	4800409
1403820302828	88	4121118	254900	420	15	37.4234122	-122.14267733	4800409
1403820302963	88	4114941	291600	420	15	37.4234122	-122.14267733	4800409
1403820303077	88	4123764	322500	420	15	37.4234122	-122.14267733	4800409
1403820303196	88	4123176	302400	420	15	37.4234122	-122.14267733	4800409
1403820303325	88	4115235	330000	420	15	37.4234122	-122.14267733	4800409
1403820303433	88	4092591	512200	420	15	37.4234122	-122.14267733	4800409
1403820303549	88	4118469	359200	420	15	37.4234122	-122.14267733	4800409
1403820303685	88	4125528	281200	419	15	37.4234122	-122.14267733	4800409
1403820303807	88	4125822	266300	420	15	37.4234122	-122.14267733	4800409
1403820303929	88	4125528	225100	419	15	37.4234122	-122.14267733	4800409
1403820304072	88	4119351	305300	420	15	37.4234122	-122.14267733	4800409
1403820304196	88	4119057	350000	419	15	37.4234122	-122.14267733	4800409
1403820304207	88	4119057	350000	419	15	37.4233593	-122.14256149	4800409
1403820304319	88	4114941	371200	420	15	37.4233593	-122.14256149	4800409
1403820304431	88	4109061	276100	420	15	37.4233593	-122.14256149	4800409
1403820304556	88	4124352	238900	419	15	37.4233593	-122.14256149	4800409
1403820304676	88	4123764	268100	419	15	37.4233593	-122.14256149	4800409
1403820304800	88	4119351	254900	420	15	37.4233593	-122.14256149	4800409
1403820304909	88	4109649	229100	420	15	37.4233593	-122.14256149	4800409
1403820305025	88	4126998	241200	420	15	37.4233593	-122.14256149	4800409
1403820305148	88	4108473	237200	420	15	37.4233593	-122.14256149	4800409
1403820305259	88	4113471	473200	419	15	37.4233593	-122.14256149	4800409
1403820305375	88	4121118	343700	420	15	37.4233593	-122.14256149	4800409
1403820305508	88	4111119	320800	420	15	37.4233593	-122.14256149	4800409
1403820305620	88	4108767	292700	419	15	37.4233593	-122.14256149	4800409
1403820305739	88	4117587	311600	419	15	37.4233593	-122.14256149	4800409
1403820305872	88	4115823	278400	420	15	37.4233593	-122.14256149	4800409
1403820305982	88	4118175	397000	420	15	37.4233593	-122.14256149	4800409
1403820306096	88	4122882	313300	419	15	37.4233593	-122.14256149	4800409
1403820306189	88	4122882	313300	419	15	37.42329166	-122.14243603	4800409
1403820306232	88	4116999	322500	420	15	37.42329166	-122.14243603	4800409
1403820306342	88	4118469	355100	420	15	37.42329166	-122.14243603	4800409
1403820306469	88	4124646	340300	420	15	37.42329166	-122.14243603	4800409
1403820306610	88	4100826	337400	420	15	37.42329166	-122.14243603	4800409
1403820306723	88	4125528	354000	419	15	37.42329166	-122.14243603	4800409
1403820306844	88	4128468	262300	419	15	37.42329166	-122.14243603	4800409
1403820306973	88	4117881	308100	420	15	37.42329166	-122.14243603	4800409
1403820307086	88	4105236	305300	420	15	37.42329166	-122.14243603	4800409
1403820307204	88	4125528	292700	419	15	37.42329166	-122.14243603	4800409
1403820307327	88	4111707	345400	419	15	37.42329166	-122.14243603	4800409
1403820307437	88	4116705	288700	420	15	37.42329166	-122.14243603	4800409
1403820307551	88	4125528	334600	419	15	37.42329166	-122.14243603	4800409
1403820307683	88	4117881	240500	420	15	37.42329166	-122.14243603	4800409
1403820307793	88	4111707	465200	419	15	37.42329166	-122.14243603	4800409
1403820307908	88	4122588	315000	419	15	37.42329166	-122.14243603	4800409
1403820308038	88	4098180	384900	420	15	37.42329166	-122.14243603	4800409
1403820308147	88	4109649	269200	419	15	37.42329166	-122.14243603	4800409
1403820308190	88	4109649	269200	419	15	37.42323353	-122.14233712	4800409
1403820308271	88	4089945	543100	419	15	37.42323353	-122.14233712	4800409
1403820308380	88	4104648	431900	419	15	37.42323353	-122.14233712	4800409
1403820308492	88	4123176	281200	419	15	37.42323353	-122.14233712	4800409
1403820308618	88	4084065	311000	420	15	37.42323353	-122.14233712	4800409
1403820308739	88	4094649	563200	420	15	37.42323353	-122.14233712	4800409
1403820308849	88	4068771	615900	420	15	37.42323353	-122.14233712	4800409
1403820308960	88	4118175	349400	420	15	37.42323353	-122.14233712	4800409
1403820309091	88	4109943	374700	420	15	37.42323353	-122.14233712	4800409
1403820309199	88	4092885	528800	420	15	37.42323353	-122.14233712	4800409
1403820309325	88	4102590	323000	420	15	37.42323353	-122.14233712	4800409
1403820309457	88	4107000	435400	420	15	37.42323353	-122.14233712	4800409
1403820309574	88	4113765	426200	420	15	37.42323353	-122.14233712	4800409
1403820309696	88	4119645	293900	420	15	37.42323353	-122.14233712	4800409
1403820309843	88	4107000	440600	420	15	37.42323353	-122.14233712	4800409
1403820309953	88	4108179	372400	420	15	37.42323353	-122.14233712	4800409
1403820310069	88	4111119	325400	420	15	37.42323353	-122.14233712	4800409
1403820310190	88	4096710	375800	420	15	37.42323353	-122.14233712	4800409
1403820310303	88	4110237	332200	420	15	37.42323353	-122.14233712	4800409
1403820310417	88	4115235	332200	420	15	37.42323353	-122.14233712	4800409
1403820310560	88	4109943	371200	420	15	37.42323353	-122.14233712	4800409
1403820310671	88	4111707	294400	420	15	37.42323353	-122.14233712	4800409
1403820310786	88	4113177	326500	420	15	37.42323353	-122.14233712	4800409
1403820310921	88	4109649	303100	420	15	37.42323353	-122.14233712	4800409
1403820311032	88	4107885	374700	420	15	37.42323353	-122.14233712	4800409
1403820311149	88	4112001	323700	420	15	37.42323353	-122.14233712	4800409
1403820311218	88	4112001	323700	420	15	37.42317989	-122.14222374	4800409
1403820311307	88	4102590	356800	420	15	37.42317989	-122.14222374	4800409
1403820311422	88	4115235	359200	420	15	37.42317989	-122.14222374	4800409
1403820311550	88	4113471	323000	420	15	37.42317989	-122.14222374	4800409
1403820311668	88	4103472	368900	420	15	37.42317989	-122.14222374	4800409
1403820311784	88	4099944	376400	420	15	37.42317989	-122.14222374	4800409
1403820311898	88	4116117	367800	420	15	37.42317989	-122.14222374	4800409
1403820312028	88	4088475	544300	420	15	37.42317989	-122.14222374	4800409
1403820312137	88	4110531	420500	420	15	37.42317989	-122.14222374	4800409
1403820312247	88	4116117	371800	420	15	37.42317989	-122.14222374	4800409
1403820312371	88	4102590	450800	420	15	37.42317989	-122.14222374	4800409
1403820312501	88	4114353	343100	420	15	37.42317989	-122.14222374	4800409
1403820312619	88	4106118	366700	420	15	37.42317989	-122.14222374	4800409
1403820312766	88	4108767	394800	420	15	37.42317989	-122.14222374	4800409
1403820312875	88	4108179	395800	420	15	37.42317989	-122.14222374	4800409
1403820312986	88	4117293	330000	420	15	37.42317989	-122.14222374	4800409
1403820313127	88	4093473	432600	420	15	37.42317989	-122.14222374	4800409
1403820313207	88	4093473	432600	420	15	37.42315138	-122.14209354	4800409
1403820313255	88	4108473	511000	420	15	37.42315138	-122.14209354	4800409
1403820313370	88	4103766	357500	420	15	37.42315138	-122.14209354	4800409
1403820313487	88	4112883	314000	420	15	37.42315138	-122.14209354	4800409
1403820313602	88	4119645	321300	420	15	37.42315138	-122.14209354	4800409
1403820313730	88	4115235	363200	420	15	37.42315138	-122.14209354	4800409
1403820313857	88	4097592	360800	420	15	37.42315138	-122.14209354	4800409
1403820313968	88	4060245	471500	420	15	37.42315138	-122.14209354	4800409
1403820314081	88	4116117	339700	420	15	37.42315138	-122.14209354	4800409
1403820314211	88	4104060	425700	420	15	37.42315138	-122.14209354	4800409
1403820314323	88	4096416	344900	420	15	37.42315138	-122.14209354	4800409
1403820314440	88	4075242	516700	420	15	37.42315138	-122.14209354	4800409
1403820314567	88	4100826	388400	420	15	37.42315138	-122.14209354	4800409
1403820314678	88	4102296	394800	420	15	37.42315138	-122.14209354	4800409
1403820314792	88	4114941	352900	420	15	37.42315138	-122.14209354	4800409
1403820314922	88	4105530	403300	420	15	37.42315138	-122.14209354	4800409
1403820315035	88	4092003	407300	420	15	37.42315138	-122.14209354	4800409
1403820315195	88	4113177	364300	420	15	37.42315138	-122.14209354	4800409
1403820315245	88	4113177	364300	420	15	37.42316415	-122.1419635	4800409
1403820315311	88	4093767	499500	420	15	37.42316415	-122.1419635	4800409
1403820315418	88	4093473	484600	420	15	37.42316415	-122.1419635	4800409
1403820315526	88	4091709	492700	420	15	37.42316415	-122.1419635	4800409
1403820315639	88	4119351	293900	420	15	37.42316415	-122.1419635	4800409
1403820315764	88	4116411	328800	420	15	37.42316415	-122.1419635	4800409
1403820315884	88	4122882	273800	420	15	37.42316415	-122.1419635	4800409
1403820316009	88	4106706	329400	420	15	37.42316415	-122.1419635	4800409
1403820316117	88	4117881	282400	420	15	37.42316415	-122.1419635	4800409
1403820316232	88	4119645	320800	420	15	37.42316415	-122.1419635	4800409
1403820316348	88	4111413	332200	420	15	37.42316415	-122.1419635	4800409
1403820316465	88	4112001	303600	420	15	37.42316415	-122.1419635	4800409
1403820316582	88	4122588	323700	420	15	37.42316415	-122.1419635	4800409
1403820316712	88	4125528	276100	420	15	37.42316415	-122.1419635	4800409
1403820316832	88	4120236	319700	420	15	37.42316415	-122.1419635	4800409
1403820316951	88	4118469	316800	420	15	37.42316415	-122.1419635	4800409
1403820317092	88	4119939	352900	420	15	37.42316415	-122.1419635	4800409
1403820317212	88	4115235	334600	420	15	37.42316415	-122.1419635	4800409
1403820317326	88	4115823	379900	420	15	37.42316415	-122.1419635	4800409
1403820317447	88	4112589	307600	420	15	37.42316415	-122.1419635	4800409
1403820317568	88	4124646	274300	420	15	37.42316415	-122.1419635	4800409
1403820317696	88	4122294	335100	420	15	37.42316415	-122.1419635	4800409
1403820317826	88	4112883	354000	420	15	37.42316415	-122.1419635	4800409
1403820317934	88	4112589	366000	420	15	37.42316415	-122.1419635	4800409
1403820318047	88	4126116	275000	419	15	37.42316415	-122.1419635	4800409
1403820318187	88	4108179	335100	420	15	37.42316415	-122.1419635	4800409
