Distance	Power
12.7077349723	1.46580233522e+12
28.4919106719	1.3592860061e+12
45.6551447758	1.36511498961e+12
62.2496155892	1.34759291623e+12
14.9078388632	1.23707739262e+12
30.8428149659	1.38149658617e+12
48.1274020544	1.23841991722e+12
66.3154054696	1.32454172604e+12
8.16886834237	1.37872344935e+12
21.9227649584	1.39078192381e+12
39.2524668525	1.3174564297e+12
56.3700431399	1.28018251802e+12
73.1869049154	1.39085979297e+12
