Distance	Power
7.66174651334	1.26166101549e+12
24.0117506125	1.23656414912e+12
41.2522529747	1.33883506482e+12
60.3198933758	1.25615752433e+12
72.4466481117	1.31762312244e+12
19.97661644	1.29143975604e+12
38.1815234643	1.24118124283e+12
58.6300743783	1.23491857836e+12
71.7145740455	1.26215845147e+12
7.38822048759	1.45107734295e+12
23.2597554174	1.62412687514e+12
42.2100210583	1.45397728298e+12
60.8131064464	1.45094054774e+12
73.6185194017	1.48320642461e+12
