Distance	Power
9.31781851105	1.31623957786e+12
24.0783313033	1.3416800187e+12
41.7982927956	1.34190419253e+12
58.6674794605	1.52465544723e+12
72.0142699215	1.36331498015e+12
85.4747996939	1.32829339015e+12
19.4111205711	1.26173738611e+12
35.2102977455	1.3262044397e+12
51.7575962161	1.29452153529e+12
67.2692505238	1.25649000426e+12
80.4553145197	1.26159981407e+12
8.56587526854	2.91769902391e+12
22.7020964651	2.87861591062e+12
38.4798487767	2.47131780619e+12
54.6767597788	2.40574937642e+12
69.6149106202	2.19095662965e+12
79.7099467477	1.66907327094e+12
89.8661899637	1.41835930665e+12
